[
    "appstream://org.kde.okular.desktop",
    "appstream://org.kde.gcompris.desktop",
    "appstream://io.github.rinigus.PureMaps",
    "appstream://im.kaidan.kaidan",
    "appstream://org.telegram.desktop",
    "appstream://org.kde.kalgebramobile",
    "appstream://org.kde.alligator.desktop",
    "appstream://org.kde.qrca.desktop",
    "appstream://org.kde.peruse.desktop",
    "appstream://org.kde.itinerary.desktop"
]
